[
    "To enjoy the glow of good health, you must exercise.",
    "Take care of your body. It's the only place you have to live.",
    "The purpose of training is to tighten up the slack, toughen the body, and polish the spirit.",
    "Fitness is not about being better than someone else... It's about being better than you used to be.",
    "Reading is to the mind what exercise is to the body.",
    "A muscle is like a car. If you want it to run well early in the morning, you have to warm it up.",
    "Time and health are two precious assets that we don't recognize and appreciate until they have been depleted.",
    "The human body is the best picture of the human soul.",
    "The reason I exercise is for the quality of life I enjoy.",
    "Walking is the best possible exercise. Habituate yourself to walk very far.",
    "True enjoyment comes from activity of the mind and exercise of the body; the two are ever united.",
    "A lot of people are afraid of heights. Not me, I'm afraid of widths.",
    "In fitness, there are no short cuts. It involves immense discipline and hard work.",
    "Exercise to stimulate, not to annihilate. The world wasn't formed in a day, and neither were we. Set small goals and build upon them.",
    "I think fitness is important. I think a healthy lifestyle is important. I think putting positive energy out there is important and just staying connected with the people.",
    "If we could give every individual the right amount of nourishment and exercise, not too little and not too much, we would have found the safest way to health.",
    "Practice puts brains in your muscles.",
    "Leave all the afternoon for exercise and recreation, which are as necessary as reading. I will rather say more necessary because health is worth more than learning.",
    "Your body is the church where Nature asks to be reverenced."
]