[
    "Only I can change my life. No one can do it for me.",
    "There is only one happiness in this life, to love and be loved.",
    "The greatest gift of life is friendship, and I have received it.",
    "Life is 10% what happens to you and 90% how you react to it.",
    "Learn to enjoy every minute of your life. Be happy now. Don't wait for something outside of yourself to make you happy in the future. Think how really precious is the time you have to spend, whether it's at work or with your family. Every minute should be enjoyed and savored.",
    "We must let go of the life we have planned, so as to accept the one that is waiting for us.",
    "Infuse your life with action. Don't wait for it to happen. Make it happen. Make your own future. Make your own hope. Make your own love. And whatever your beliefs, honor your creator, not by passively waiting for grace to come down from upon high, but by doing what you can to make grace happen... yourself, right now, right down here on Earth.",
    "Smile in the mirror. Do that every morning and you'll start to see a big difference in your life.",
    "Life isn't about finding yourself. Life is about creating yourself.",
    "Today I choose life. Every morning when I wake up I can choose joy, happiness, negativity, pain... To feel the freedom that comes from being able to continue to make mistakes and choices - today I choose to feel life, not to deny my humanity but embrace it.",
    "Be happy for this moment. This moment is your life.",
    "Death is not the greatest loss in life. The greatest loss is what dies inside us while we live.",
    "There are two great days in a person's life - the day we are born and the day we discover why.",
    "My mission in life is not merely to survive, but to thrive; and to do so with some passion, some compassion, some humor, and some style.",
    "It's all about quality of life and finding a happy balance between work and friends and family.",
    "Your work is going to fill a large part of your life, and the only way to be truly satisfied is to do what you believe is great work. And the only way to do great work is to love what you do. If you haven't found it yet, keep looking. Don't settle. As with all matters of the heart, you'll know when you find it.",
    "Because of your smile, you make life more beautiful.",
    "Live life to the fullest, and focus on the positive.",
    "Peace is the beauty of life. It is sunshine. It is the smile of a child, the love of a mother, the joy of a father, the togetherness of a family. It is the advancement of man, the victory of a just cause, the triumph of truth.",
    "Do not dwell in the past, do not dream of the future, concentrate the mind on the present moment.",
    "Do not take life too seriously. You will never get out of it alive.",
    "The biggest adventure you can take is to live the life of your dreams.",
    "Clouds come floating into my life, no longer to carry rain or usher storm, but to add color to my sunset sky.",
    "Life is full of happiness and tears; be strong and have faith.",
    "Stay true to yourself, yet always be open to learn. Work hard, and never give up on your dreams, even when nobody else believes they can come true but you. These are not cliches but real tools you need no matter what you do in life to stay focused on your path.",
    "The good life is one inspired by love and guided by knowledge."
]